…
## **B.2 Las Variables “clave” (key)**

Un objeto tsibble permite albergar multiples series temporales en un
simple objeto. Suponga que está interesando en contener los atletas más
veloces (entre mujeres y hombres) en las olimpiadas, para las categorías
100, 200,…, hasta 10000 metros planos.

``` r
olympic_running
```

    ## # A tsibble: 312 x 4 [4Y]
    ## # Key:       Length, Sex [14]
    ##     Year Length Sex    Time
    ##    <int>  <int> <chr> <dbl>
    ##  1  1896    100 men    12  
    ##  2  1900    100 men    11  
    ##  3  1904    100 men    11  
    ##  4  1908    100 men    10.8
    ##  5  1912    100 men    10.8
    ##  6  1916    100 men    NA  
    ##  7  1920    100 men    10.8
    ##  8  1924    100 men    10.6
    ##  9  1928    100 men    10.8
    ## 10  1932    100 men    10.3
    ## # ... with 302 more rows
…
Podemos utilizar filter() para extraer la solo algunos tipos de
concesiones:

``` r
PBS %>% filter(Concession == "General")
```

    ## # A tsibble: 33,576 x 9 [1M]
    ## # Key:       Concession, Type, ATC1, ATC2 [168]
    ##        Month Concession Type       ATC1  ATC1_desc ATC2  ATC2_desc Scripts  Cost
    ##        <mth> <chr>      <chr>      <chr> <chr>     <chr> <chr>       <dbl> <dbl>
    ##  1 1991 Jul. General    Co-paymen~ A     Alimenta~ A01   STOMATOL~      61   254
    ##  2 1991 Ago. General    Co-paymen~ A     Alimenta~ A01   STOMATOL~      27   135
    ##  3 1991 Set. General    Co-paymen~ A     Alimenta~ A01   STOMATOL~      21    81
    ##  4 1991 Oct. General    Co-paymen~ A     Alimenta~ A01   STOMATOL~      29   127
    ##  5 1991 Nov. General    Co-paymen~ A     Alimenta~ A01   STOMATOL~      29    50
    ##  6 1991 Dic. General    Co-paymen~ A     Alimenta~ A01   STOMATOL~      28   147
    ##  7 1992 Ene. General    Co-paymen~ A     Alimenta~ A01   STOMATOL~      19    76
    ##  8 1992 Feb. General    Co-paymen~ A     Alimenta~ A01   STOMATOL~      28   104
    ##  9 1992 Mar. General    Co-paymen~ A     Alimenta~ A01   STOMATOL~      26   113
    ## 10 1992 Abr. General    Co-paymen~ A     Alimenta~ A01   STOMATOL~      29    67
    ## # ... with 33,566 more rows

Podriamos llegar a situaciones más complejas, como (ello se puede
guardar en un nuevo objeto):

``` r
PBS %>%
  filter(ATC2 == "A10") %>%
  select(Month, Concession, Type, Cost) %>%
  summarise(TotalC = sum(Cost)) %>%
  mutate(Cost = TotalC/1e6)
```

    ## # A tsibble: 204 x 3 [1M]
    ##        Month  TotalC  Cost
    ##        <mth>   <dbl> <dbl>
    ##  1 1991 Jul. 3526591  3.53
    ##  2 1991 Ago. 3180891  3.18
    ##  3 1991 Set. 3252221  3.25
    ##  4 1991 Oct. 3611003  3.61
    ##  5 1991 Nov. 3565869  3.57
    ##  6 1991 Dic. 4306371  4.31
    ##  7 1992 Ene. 5088335  5.09
    ##  8 1992 Feb. 2814520  2.81
    ##  9 1992 Mar. 2985811  2.99
    ## 10 1992 Abr. 3204780  3.20
    ## # ... with 194 more rows
…
Utilizaremos el métofo STL de descomposición (como ejemplo):

``` r
dcmp <- us_retail_employment %>%
  model(stl = STL(Employed))
```

Visualizamos el resultado:

``` r
components(dcmp)
```

    ## # A dable: 357 x 7 [1M]
    ## # Key:     .model [1]
    ## # :        Employed = trend + season_year + remainder
    ##    .model     Month Employed  trend season_year remainder season_adjust
    ##    <chr>      <mth>    <dbl>  <dbl>       <dbl>     <dbl>         <dbl>
    ##  1 stl    1990 Ene.   13256. 13288.      -33.0      0.836        13289.
    ##  2 stl    1990 Feb.   12966. 13269.     -258.     -44.6          13224.
    ##  3 stl    1990 Mar.   12938. 13250.     -290.     -22.1          13228.
    ##  4 stl    1990 Abr.   13012. 13231.     -220.       1.05         13232.
    ##  5 stl    1990 May.   13108. 13211.     -114.      11.3          13223.
    ##  6 stl    1990 Jun.   13183. 13192.      -24.3     15.5          13207.
    ##  7 stl    1990 Jul.   13170. 13172.      -23.2     21.6          13193.
    ##  8 stl    1990 Ago.   13160. 13151.       -9.52    17.8          13169.
    ##  9 stl    1990 Set.   13113. 13131.      -39.5     22.0          13153.
    ## 10 stl    1990 Oct.   13185. 13110.       61.6     13.2          13124.
    ## # ... with 347 more rows
…
El paquete “feasts” incluye funciones para obtener las características y
estadística de una serie de tiempo. La autocorrelación puede verse como
una de ellas (previamente estudiada).

## E.1 Estadísticos simples

Aplicaremos la función features():

``` r
tourism %>%
  features(Trips, list(mean = mean)) %>%
  arrange(mean)
```

    ## # A tibble: 304 x 4
    ##    Region          State              Purpose   mean
    ##    <chr>           <chr>              <chr>    <dbl>
    ##  1 Kangaroo Island South Australia    Other    0.340
    ##  2 MacDonnell      Northern Territory Other    0.449
    ##  3 Wilderness West Tasmania           Other    0.478
    ##  4 Barkly          Northern Territory Other    0.632
    ##  5 Clare Valley    South Australia    Other    0.898
    ##  6 Barossa         South Australia    Other    1.02 
    ##  7 Kakadu Arnhem   Northern Territory Other    1.04 
    ##  8 Lasseter        Northern Territory Other    1.14 
    ##  9 Wimmera         Victoria           Other    1.15 
    ## 10 MacDonnell      Northern Territory Visiting 1.18 
    ## # ... with 294 more rows

Algunos valores estadísticos importantes pueden resumirse rapidamente
(hablamos de el valor mínimo, Q1, mediana, Q3 y valor máximo):

``` r
tourism %>% features(Trips, quantile)
```

    ## # A tibble: 304 x 8
    ##    Region         State             Purpose    `0%`  `25%`   `50%`  `75%` `100%`
    ##    <chr>          <chr>             <chr>     <dbl>  <dbl>   <dbl>  <dbl>  <dbl>
    ##  1 Adelaide       South Australia   Busine~  68.7   134.   153.    177.   242.  
    ##  2 Adelaide       South Australia   Holiday 108.    135.   154.    172.   224.  
    ##  3 Adelaide       South Australia   Other    25.9    43.9   53.8    62.5  107.  
    ##  4 Adelaide       South Australia   Visiti~ 137.    179.   206.    229.   270.  
    ##  5 Adelaide Hills South Australia   Busine~   0       0      1.26    3.92  28.6 
    ##  6 Adelaide Hills South Australia   Holiday   0       5.77   8.52   14.1   35.8 
    ##  7 Adelaide Hills South Australia   Other     0       0      0.908   2.09   8.95
    ##  8 Adelaide Hills South Australia   Visiti~   0.778   8.91  12.2    16.8   81.1 
    ##  9 Alice Springs  Northern Territo~ Busine~   1.01    9.13  13.3    18.5   34.1 
    ## 10 Alice Springs  Northern Territo~ Holiday   2.81   16.9   31.5    44.8   76.5 
    ## # ... with 294 more rows
…
-   El primer coeficiente de la autocorrelación doblemente diferenciados
    (diff2_acf1).

-   La suma de los cuadrados de los primeros diez coeficientes de
    autocorrelación de los datos doblemente diferenciados (diff2_acf10).

-   También devuelve el coeficiente de autocorrelación en el primer
    retraso estacional.

``` r
tourism %>% features(Trips, feat_acf)
```

    ## # A tibble: 304 x 10
    ##    Region         State Purpose     acf1 acf10 diff1_acf1 diff1_acf10 diff2_acf1
    ##    <chr>          <chr> <chr>      <dbl> <dbl>      <dbl>       <dbl>      <dbl>
    ##  1 Adelaide       Sout~ Busine~  0.0333  0.131     -0.520       0.463     -0.676
    ##  2 Adelaide       Sout~ Holiday  0.0456  0.372     -0.343       0.614     -0.487
    ##  3 Adelaide       Sout~ Other    0.517   1.15      -0.409       0.383     -0.675
    ##  4 Adelaide       Sout~ Visiti~  0.0684  0.294     -0.394       0.452     -0.518
    ##  5 Adelaide Hills Sout~ Busine~  0.0709  0.134     -0.580       0.415     -0.750
    ##  6 Adelaide Hills Sout~ Holiday  0.131   0.313     -0.536       0.500     -0.716
    ##  7 Adelaide Hills Sout~ Other    0.261   0.330     -0.253       0.317     -0.457
    ##  8 Adelaide Hills Sout~ Visiti~  0.139   0.117     -0.472       0.239     -0.626
    ##  9 Alice Springs  Nort~ Busine~  0.217   0.367     -0.500       0.381     -0.658
    ## 10 Alice Springs  Nort~ Holiday -0.00660 2.11      -0.153       2.11      -0.274
    ## # ... with 294 more rows, and 2 more variables: diff2_acf10 <dbl>,
    ## #   season_acf1 <dbl>
…
Estas medidas pueden ser útiles cuando se tiene una gran colección de
series de tiempo, y se necesitará encontrar la serie con la mayor
tendencia o mayor estacionalidad. Esto podemos encontrarlo con la
función feat_stl(), ver los resultados de trend_strength y
seasonal_strenght_year:

``` r
tourism %>%
  features(Trips, feat_stl)
```

    ## # A tibble: 304 x 12
    ##    Region         State Purpose trend_strength seasonal_streng~ seasonal_peak_y~
    ##    <chr>          <chr> <chr>            <dbl>            <dbl>            <dbl>
    ##  1 Adelaide       Sout~ Busine~          0.464            0.407                3
    ##  2 Adelaide       Sout~ Holiday          0.554            0.619                1
    ##  3 Adelaide       Sout~ Other            0.746            0.202                2
    ##  4 Adelaide       Sout~ Visiti~          0.435            0.452                1
    ##  5 Adelaide Hills Sout~ Busine~          0.464            0.179                3
    ##  6 Adelaide Hills Sout~ Holiday          0.528            0.296                2
    ##  7 Adelaide Hills Sout~ Other            0.593            0.404                2
    ##  8 Adelaide Hills Sout~ Visiti~          0.488            0.254                0
    ##  9 Alice Springs  Nort~ Busine~          0.534            0.251                0
    ## 10 Alice Springs  Nort~ Holiday          0.381            0.832                3
    ## # ... with 294 more rows, and 6 more variables: seasonal_trough_year <dbl>,
    ## #   spikiness <dbl>, linearity <dbl>, curvature <dbl>, stl_e_acf1 <dbl>,
    ## #   stl_e_acf10 <dbl>
…
