…
Lo mismo podemos hacer para la variable **pay**:

``` r
water_raw %>% count(pay, sort = TRUE)
```

    ## # A tibble: 559 x 2
    ##    pay                                 n
    ##    <chr>                           <int>
    ##  1 NA                             214970
    ##  2 No                              78290
    ##  3 Water Committee Collects Fees   40461
    ##  4 No payment – its free           27378
    ##  5 No- water is free               20020
    ##  6 Never pay                        8839
    ##  7 They do not pay                  8492
    ##  8 Not recorded                     8161
    ##  9 0                                6395
    ## 10 Only when there is a breakdown   5728
    ## # ... with 549 more rows
…
